<?xml version="1.0" encoding="UTF-8" standalone="no"?>
<!-- Created with Inkscape (http://www.inkscape.org/) -->

<svg
   xmlns:dc="http://purl.org/dc/elements/1.1/"
   xmlns:cc="http://creativecommons.org/ns#"
   xmlns:rdf="http://www.w3.org/1999/02/22-rdf-syntax-ns#"
   xmlns:svg="http://www.w3.org/2000/svg"
   xmlns="http://www.w3.org/2000/svg"
   xmlns:sodipodi="http://sodipodi.sourceforge.net/DTD/sodipodi-0.dtd"
   xmlns:inkscape="http://www.inkscape.org/namespaces/inkscape"
   width="60"
   height="80"
   id="svg2"
   version="1.1"
   inkscape:version="0.47 r22583"
   sodipodi:docname="keep_beautified.svg"
   inkscape:export-filename="D:\documents\netbeans_workspace\Citadels\images\svg\districts\purple\keep_beautified.png"
   inkscape:export-xdpi="90"
   inkscape:export-ydpi="90">
  <defs
     id="defs4">
    <inkscape:perspective
       sodipodi:type="inkscape:persp3d"
       inkscape:vp_x="0 : 526.18109 : 1"
       inkscape:vp_y="0 : 1000 : 0"
       inkscape:vp_z="744.09448 : 526.18109 : 1"
       inkscape:persp3d-origin="372.04724 : 350.78739 : 1"
       id="perspective10" />
    <inkscape:perspective
       id="perspective3635"
       inkscape:persp3d-origin="0.5 : 0.33333333 : 1"
       inkscape:vp_z="1 : 0.5 : 1"
       inkscape:vp_y="0 : 1000 : 0"
       inkscape:vp_x="0 : 0.5 : 1"
       sodipodi:type="inkscape:persp3d" />
    <inkscape:perspective
       id="perspective3660"
       inkscape:persp3d-origin="0.5 : 0.33333333 : 1"
       inkscape:vp_z="1 : 0.5 : 1"
       inkscape:vp_y="0 : 1000 : 0"
       inkscape:vp_x="0 : 0.5 : 1"
       sodipodi:type="inkscape:persp3d" />
    <inkscape:perspective
       id="perspective2899"
       inkscape:persp3d-origin="0.5 : 0.33333333 : 1"
       inkscape:vp_z="1 : 0.5 : 1"
       inkscape:vp_y="0 : 1000 : 0"
       inkscape:vp_x="0 : 0.5 : 1"
       sodipodi:type="inkscape:persp3d" />
    <inkscape:perspective
       id="perspective3788"
       inkscape:persp3d-origin="0.5 : 0.33333333 : 1"
       inkscape:vp_z="1 : 0.5 : 1"
       inkscape:vp_y="0 : 1000 : 0"
       inkscape:vp_x="0 : 0.5 : 1"
       sodipodi:type="inkscape:persp3d" />
    <inkscape:perspective
       id="perspective3810"
       inkscape:persp3d-origin="0.5 : 0.33333333 : 1"
       inkscape:vp_z="1 : 0.5 : 1"
       inkscape:vp_y="0 : 1000 : 0"
       inkscape:vp_x="0 : 0.5 : 1"
       sodipodi:type="inkscape:persp3d" />
    <inkscape:perspective
       id="perspective3594"
       inkscape:persp3d-origin="0.5 : 0.33333333 : 1"
       inkscape:vp_z="1 : 0.5 : 1"
       inkscape:vp_y="0 : 1000 : 0"
       inkscape:vp_x="0 : 0.5 : 1"
       sodipodi:type="inkscape:persp3d" />
  </defs>
  <sodipodi:namedview
     id="base"
     pagecolor="#ffffff"
     bordercolor="#666666"
     borderopacity="1.0"
     inkscape:pageopacity="0.0"
     inkscape:pageshadow="2"
     inkscape:zoom="1.4"
     inkscape:cx="-165.10832"
     inkscape:cy="6.0098749"
     inkscape:document-units="px"
     inkscape:current-layer="layer1"
     showgrid="false"
     inkscape:window-width="1784"
     inkscape:window-height="1061"
     inkscape:window-x="1432"
     inkscape:window-y="-8"
     inkscape:window-maximized="1" />
  <metadata
     id="metadata7">
    <rdf:RDF>
      <cc:Work
         rdf:about="">
        <dc:format>image/svg+xml</dc:format>
        <dc:type
           rdf:resource="http://purl.org/dc/dcmitype/StillImage" />
        <dc:title></dc:title>
      </cc:Work>
    </rdf:RDF>
  </metadata>
  <g
     inkscape:label="レイヤー 1"
     inkscape:groupmode="layer"
     id="layer1"
     transform="translate(0,-972.36218)">
    <rect
       style="fill:#d4aa00;stroke:#aa8800;stroke-width:0.99497801"
       id="rect3602"
       width="59.022877"
       height="13.219308"
       x="0.55106044"
       y="1038.6455" />
    <text
       xml:space="preserve"
       style="font-size:12px;font-style:normal;font-variant:normal;font-weight:normal;font-stretch:normal;text-align:start;line-height:100%;writing-mode:lr-tb;text-anchor:start;fill:#000000;fill-opacity:1;stroke:none;font-family:Times New Roman;-inkscape-font-specification:Times New Roman"
       x="13.940453"
       y="1049.6687"
       id="text2824"
       sodipodi:linespacing="100%"><tspan
         sodipodi:role="line"
         id="tspan2826"
         x="13.940453"
         y="1049.6687"
         style="font-size:12px;font-style:normal;font-variant:normal;font-weight:normal;font-stretch:normal;text-align:start;line-height:100%;writing-mode:lr;text-anchor:start;font-family:Times New Roman;-inkscape-font-specification:Times New Roman">Keep</tspan></text>
    <path
       sodipodi:type="arc"
       style="fill:#7137c8;stroke:#333333;fill-opacity:1"
       id="path3604"
       sodipodi:cx="12.142858"
       sodipodi:cy="102.5"
       sodipodi:rx="5"
       sodipodi:ry="5"
       d="m 17.142858,102.5 c 0,2.76142 -2.238577,5 -5,5 -2.7614242,0 -5.0000004,-2.23858 -5.0000004,-5 0,-2.761424 2.2385762,-5 5.0000004,-5 2.761423,0 5,2.238576 5,5 z"
       transform="translate(-5.1607143,942.9336)" />
    <rect
       style="fill:#7137c8;stroke:#aa8800;stroke-width:0.99864911999999995;fill-opacity:1"
       id="rect3608"
       width="59.108494"
       height="64.912064"
       x="0.51718342"
       y="972.80792" />
    <path
       sodipodi:type="arc"
       style="fill:#ffcc00;stroke:#aa8800;stroke-width:1;stroke-miterlimit:4;stroke-dasharray:none"
       id="path3621"
       sodipodi:cx="-49.82143"
       sodipodi:cy="-6.25"
       sodipodi:rx="4.4642859"
       sodipodi:ry="4.4642859"
       d="m -45.357144,-6.25 c 0,2.465557 -1.998729,4.4642859 -4.464286,4.4642859 -2.465557,0 -4.464286,-1.9987289 -4.464286,-4.4642859 0,-2.465557 1.998729,-4.464286 4.464286,-4.464286 2.465557,0 4.464286,1.998729 4.464286,4.464286 z"
       transform="translate(56.548224,985.15832)" />
    <path
       sodipodi:type="arc"
       style="fill:#ffcc00;stroke:#aa8800;stroke-width:1;stroke-miterlimit:4;stroke-dasharray:none;stroke-opacity:1"
       id="path3621-2"
       sodipodi:cx="-49.82143"
       sodipodi:cy="-6.25"
       sodipodi:rx="4.4642859"
       sodipodi:ry="4.4642859"
       d="m -45.357144,-6.25 c 0,2.465557 -1.998729,4.4642859 -4.464286,4.4642859 -2.465557,0 -4.464286,-1.9987289 -4.464286,-4.4642859 0,-2.465557 1.998729,-4.464286 4.464286,-4.464286 2.465557,0 4.464286,1.998729 4.464286,4.464286 z"
       transform="translate(56.454363,995.60744)" />
    <path
       sodipodi:type="arc"
       style="fill:#ffcc00;stroke:#aa8800;stroke-width:1;stroke-miterlimit:4;stroke-dasharray:none;stroke-opacity:1"
       id="path3621-8"
       sodipodi:cx="-49.82143"
       sodipodi:cy="-6.25"
       sodipodi:rx="4.4642859"
       sodipodi:ry="4.4642859"
       d="m -45.357144,-6.25 c 0,2.465557 -1.998729,4.4642859 -4.464286,4.4642859 -2.465557,0 -4.464286,-1.9987289 -4.464286,-4.4642859 0,-2.465557 1.998729,-4.464286 4.464286,-4.464286 2.465557,0 4.464286,1.998729 4.464286,4.464286 z"
       transform="translate(56.375024,1006.1465)" />
    <path
       sodipodi:type="star"
       style="fill:#ffff00;fill-opacity:1;stroke:#cccccc;stroke-width:1;stroke-miterlimit:4;stroke-opacity:1;stroke-dasharray:none"
       id="path2858"
       sodipodi:sides="5"
       sodipodi:cx="-56.063465"
       sodipodi:cy="-6.4943123"
       sodipodi:r1="4.2427158"
       sodipodi:r2="2.1213579"
       sodipodi:arg1="0.93324753"
       sodipodi:arg2="1.5615661"
       inkscape:flatsided="false"
       inkscape:rounded="0"
       inkscape:randomized="0"
       d="m -53.538084,-3.0850475 -2.505801,-1.2879972 -2.481598,1.3340336 0.450623,-2.7811715 -2.035597,-1.947901 2.784301,-0.4308612 1.22353,-2.5379022 1.27017,2.5148842 2.79178,0.3793909 -1.999293,1.9851453 0.501885,2.7723791 z"
       transform="matrix(2.1078736,0,0,1.9645657,166.56126,996.60384)" />
  </g>
</svg>
